﻿city,city_ascii,province_id,province_name,lat,lng,population,density,timezone,ranking,postal,id
Banff,Banff,AB,Alberta,51.1781,-115.5719,7847,1646,America/Edmonton,3,T1L,1124351648
Barrhead,Barrhead,AB,Alberta,54.1167,-114.4,4579,560.4,America/Edmonton,3,T7N,1124181687
Beaverlodge,Beaverlodge,AB,Alberta,55.2094,-119.4292,2465,430.5,America/Edmonton,3,T0H,1124894073
Blackfalds,Blackfalds,AB,Alberta,52.3833,-113.8,9328,567.3,America/Edmonton,3,T0M T4M,1124056144
Bonnyville,Bonnyville,AB,Alberta,54.2667,-110.75,5975,421.4,America/Edmonton,3,T9N,1124166469
Brooks,Brooks,AB,Alberta,50.5642,-111.8989,14451,777.3,America/Edmonton,3,T1R,1124093123
Calgary,Calgary,AB,Alberta,51.05,-114.0667,1239220,1501.1,America/Edmonton,1,T1Y T2H T2K T2J T2L T2N T2A T2C T2B T2E T2G T2Y T2X T2Z T2S T2R T2T T2V T3N T3L T3M T3J T3K T3H T3G T3E T3B T3C T3A T3R T3S T3P,1124690423
Camrose,Camrose,AB,Alberta,53.0167,-112.8333,18742,439.8,America/Edmonton,3,T4V,1124351657
Cardston,Cardston,AB,Alberta,49.2025,-113.3019,3585,417.5,America/Edmonton,3,T0K,1124479644
Claresholm,Claresholm,AB,Alberta,50.0194,-113.5783,3780,465.9,America/Edmonton,3,T0L,1124380878
Coaldale,Coaldale,AB,Alberta,49.7333,-112.6167,8215,1028.5,America/Edmonton,3,T1M,1124989507
Drayton Valley,Drayton Valley,AB,Alberta,53.2222,-114.9769,7235,235.5,America/Edmonton,3,T7A,1124814220
Drumheller,Drumheller,AB,Alberta,51.4636,-112.7194,7982,73.9,America/Edmonton,3,T0J,1124745292
Edmonton,Edmonton,AB,Alberta,53.5344,-113.4903,1062643,1360.9,America/Edmonton,1,T5X T5Y T5Z T5P T5R T5S T5T T5V T5W T5H T5J T5K T5L T5M T5N T5A T5B T5C T5E T5G T6X T6T T6W T6V T6P T6S T6R T6M T6L T6H T6K T6J T6E T6G T6A T6C T6B,1124290735
Elk Point,Elk Point,AB,Alberta,53.8967,-110.8972,1452,295.5,America/Edmonton,3,T0A,1124622637
Fairview,Fairview,AB,Alberta,56.071667,-118.392778,"2,998",264,America/Edmonton,NULL,NULL,NULL
Falher,Falher,AB,Alberta,55.7372,-117.2014,1047,376.4,America/Edmonton,3,T0H,1124001263
Fort Macleod,Fort Macleod,AB,Alberta,49.7256,-113.3975,2967,126.8,America/Edmonton,3,T0L,1124975838
Grande Prairie,Grande Prairie,AB,Alberta,55.1708,-118.7947,63166,475.9,America/Edmonton,3,T8V T8X T8W,1124505481
Grimshaw,Grimshaw,AB,Alberta,56.1908,-117.6117,2718,383.4,America/Edmonton,3,T0H,1124339886
High Prairie,High Prairie,AB,Alberta,55.4325,-116.4861,2564,355.3,America/Edmonton,3,T0G,1124163323
High River,High River,AB,Alberta,50.5808,-113.8744,13584,635.1,America/Edmonton,3,T1V,1124607825
Innisfail,Innisfail,AB,Alberta,52.0333,-113.95,7847,404.6,America/Edmonton,3,T4G,1124612670
Jasper,Jasper,AB,Alberta,52.9013,-118.1312,4590,5,America/Edmonton,4,T0E,1124533812
Lacombe,Lacombe,AB,Alberta,52.4683,-113.7369,13057,627.5,America/Edmonton,3,T4L,1124057569
Lethbridge,Lethbridge,AB,Alberta,49.6942,-112.8328,92729,759.5,America/Edmonton,3,T1H T1J T1K,1124321200
Mayerthorpe,Mayerthorpe,AB,Alberta,53.9503,-115.1336,1320,302.2,America/Edmonton,3,T0E,1124001053
McLennan,Fairview,AB,Alberta,55.711667,-116.909444,701,188.7,America/Edmonton,NULL,NULL,NULL
Medicine Hat,Medicine Hat,AB,Alberta,50.0417,-110.6775,63260,564.6,America/Edmonton,3,T1A T1B T1C,1124303972
Millet,Millet,AB,Alberta,53.0978,-113.4728,1945,522.9,America/Edmonton,3,T0C,1124327149
Nanton,Nanton,AB,Alberta,50.3494,-113.7717,2181,447.8,America/Edmonton,3,T0L,1124418201
Okotoks,Okotoks,AB,Alberta,50.725,-113.975,28881,1471,America/Edmonton,3,T1S,1124521470
Olds,Olds,AB,Alberta,51.7928,-114.1067,9184,615.3,America/Edmonton,3,T4H,1124330412
Peace River,Peace River,AB,Alberta,56.2339,-117.2897,6842,260.6,America/Edmonton,3,T8S,1124941936
Pincher Creek,Pincher Creek,AB,Alberta,49.4861,-113.95,3642,361.1,America/Edmonton,3,T0K,1124252125
Raymond,Raymond,AB,Alberta,49.4658,-112.6508,3708,557.1,America/Edmonton,3,T0K,1124125903
Red Deer,Red Deer,AB,Alberta,52.2681,-113.8111,100418,958.8,America/Edmonton,2,T4R T4P T4N,1124404130
Smoky Lake,Fairview,AB,Alberta,54.120833,-112.473333,964,226.2,America/Edmonton,NULL,NULL,NULL
Stettler,Stettler,AB,Alberta,52.3236,-112.7192,5952,453,America/Edmonton,3,T0C,1124010388
Strathmore,Strathmore,AB,Alberta,51.0378,-113.4003,13756,502,America/Edmonton,3,T1P,1124000881
Sylvan Lake,Sylvan Lake,AB,Alberta,52.3083,-114.0964,14816,634.2,America/Edmonton,3,T4S,1124397940
Taber,Taber,AB,Alberta,49.7847,-112.1508,8428,537.9,America/Edmonton,3,T1G,1124113583
Tofield,Tofield,AB,Alberta,53.3703,-112.6667,2081,253.4,America/Edmonton,3,T0B,1124392098
Vegreville,Vegreville,AB,Alberta,53.4928,-112.0522,5708,405.4,America/Edmonton,3,T9C,1124534321
Vermilion,Vermilion,AB,Alberta,53.3542,-110.8528,4084,315.8,America/Edmonton,3,T9X,1124995979
Vulcan,Vulcan,AB,Alberta,50.4,-113.25,1917,302.3,America/Edmonton,3,T0L,1124607765
Westlock,Westlock,AB,Alberta,54.1522,-113.8511,5101,381.4,America/Edmonton,3,T7P,1124037311
Wetaskiwin,Wetaskiwin,AB,Alberta,52.9694,-113.3769,12655,691.1,America/Edmonton,3,T9A,1124492484
Whitecourt,Whitecourt,AB,Alberta,54.1417,-115.6833,1082,386,America/Edmonton,3,T7S,1124641551
